﻿============================================================================================
		  RELEASE NOTES - CSC INTEGRAL FSU Admin - Version 2.2 Date: 04/30/2013
============================================================================================
 Bug Fixes
-----------

#6595 Ticket for Group I18N file changes